<?xml version="1.0" encoding="utf-8"?>
<!-- Generator: Adobe Illustrator 25.2.0, SVG Export Plug-In . SVG Version: 6.00 Build 0)  -->
<svg version="1.1" id="Capa_1" xmlns="http://www.w3.org/2000/svg" xmlns:xlink="http://www.w3.org/1999/xlink" x="0px" y="0px"
	 viewBox="0 0 24 24" style="enable-background:new 0 0 24 24;" xml:space="preserve">
<style type="text/css">
	.st0{fill:none;stroke:#FF3E03;stroke-width:1.5;stroke-linecap:round;stroke-linejoin:round;}
	.st1{fill:none;}
</style>
<g id="vuesax_linear_sms" transform="translate(-556 -250)">
	<g id="sms">
		<path id="Vector" class="st0" d="M573,270.5h-10c-3,0-5-1.5-5-5v-7c0-3.5,2-5,5-5h10c3,0,5,1.5,5,5v7C578,269,576,270.5,573,270.5
			z"/>
		<path id="Vector-2" class="st0" d="M573,259l-3.1,2.5c-1.1,0.8-2.6,0.8-3.8,0L563,259"/>
		<path id="Vector-3" class="st1" d="M556,250h24v24h-24V250z"/>
	</g>
</g>
</svg>
